[
  {
    "code": "en",
    "name": "English"
  },
  {
    "code": "ar",
    "name": "Arabic"
  },
  {
    "code": "zh",
    "name": "Chinese"
  },
  {
    "code": "nl",
    "name": "Dutch"
  },
  {
    "code": "fi",
    "name": "Finnish"
  },
  {
    "code": "fr",
    "name": "French"
  },
  {
    "code": "de",
    "name": "German"
  },
  {
    "code": "hi",
    "name": "Hindi"
  },
  {
    "code": "hu",
    "name": "Hungarian"
  },
  {
    "code": "id",
    "name": "Indonesian"
  },
  {
    "code": "ga",
    "name": "Irish"
  },
  {
    "code": "it",
    "name": "Italian"
  },
  {
    "code": "ja",
    "name": "Japanese"
  },
  {
    "code": "ko",
    "name": "Korean"
  },
  {
    "code": "pl",
    "name": "Polish"
  },
  {
    "code": "pt",
    "name": "Portuguese"
  },
  {
    "code": "ru",
    "name": "Russian"
  },
  {
    "code": "es",
    "name": "Spanish"
  },
  {
    "code": "sv",
    "name": "Swedish"
  },
  {
    "code": "tr",
    "name": "Turkish"
  },
  {
    "code": "uk",
    "name": "Ukranian"
  },
  {
    "code": "vi",
    "name": "Vietnamese"
  }
]
